Data Wrangling
…
Collapsing shared checklists

Checklists with the same group_identifier provide
duplicates information on the same checklist in the eBird database. We
then collapse those shared checklists using
auk_unique().

checklists_shared <- read_sampling(amwo_samp, unique = FALSE)

checklists_shared |> 
  filter(!is.na(group_identifier)) |> 
  arrange(group_identifier) |> 
  select(sampling_event_identifier, group_identifier)

## # A tibble: 499,631 × 2
##    sampling_event_identifier group_identifier
##    <chr>                     <chr>           
##  1 S133795590                G10000026       
##  2 S133795510                G10000026       
##  3 S133796607                G10000075       
##  4 S133796609                G10000075       
##  5 S133796610                G10000075       
##  6 S133796860                G10000119       
##  7 S133796859                G10000119       
##  8 S133796979                G10000122       
##  9 S133796980                G10000122       
## 10 S133797306                G10000134       
## # ℹ 499,621 more rows
…
